[
    {
        "make": "Honda",
        "model": "Odyssey",
        "year": 2008,
        "problemType": "Check engine light",
        "problemDescription": "Airback check light turns on (HUD-2773)"
    },
    {
        "make": "Fiat",
        "model": "500e",
        "year": 2014,
        "problemType": "Can't shift out of Park",
        "problemDescription": "HUD-2443 - \"unfortunately not only is it lighting up every code/error on my dashboard, but its immobilizing the car as well.  (getting 'check propulsion system' error as well as 'charging system' and 'braking regen' errors). \nI had to reset my ecu (battery disconnect-reconnect) to clear the codes and the car runs just fine w/Navdy not connected.....plug it back in, and everything shuts down as soon as it boots up. \""
    },
    {
        "make": "Fiat",
        "model": "500e",
        "year": 2015,
        "problemType": "Can't shift out of Park",
        "problemDescription": "HUD-2443 - customer was unable to change gears and the warning lights were appearing on the vehicle's instrument panel."
    },
    {
        "make": "Fiat",
        "model": "500e",
        "year": 2016,
        "problemType": "Can't shift out of Park",
        "problemDescription": "Doug reported that an investor ith a 2016 Fiat 500e encountered problems."
    },
    {
        "make": "Honda",
        "model": "CR-V",
        "year": 2011,
        "problemType": "Check engine light",
        "problemDescription": "HUD-2494 - \"I notice that since installation I keep getting a TPMS warning light on my dash. Tire Pressure Monitoring System. This seems to only happen when the Navdy is plugged into the OBD port. I don't know if the Navdy is causing some interference and thought you should be aware of this.\""
    },
    {
        "make": "Chevrolet",
        "model": "Impala",
        "year": 2016,
        "problemType": "Check engine light",
        "problemDescription": "\"My RPM gauge was moving up and down, the stabilitrak said needs servicing, and the temp gauge was moving up and down as well as the check engine light being on now. I have a video of the dash and an image as well.\""
    },
    {
        "make": "BMW",
        "model": "328",
        "year": 2007,
        "problemType": "Check engine light",
        "problemDescription": "Upon plugging the power cable into the OBD-II port and powering on Navdy, this vehicle's dash check engine light would come on. Unplugging the cable from the OBD-II port and restart the car does not remove the check engine light."
    },
    {
        "make": "Honda",
        "model": "Civic",
        "year": 2006,
        "problemType": "Air bag lights"
    },
    {
        "make": "Ford",
        "model": "Focus",
        "year": 2014,
        "problemType": "Car won't start",
        "problemDescription": "In the electric model of the Ford Focus, the car shuts down - HUD-2692"
    },
    {
        "make": "Toyota",
        "model": "4Runner",
        "year": 2004,
        "problemType": "Traction control system and O2 sensor warning lights",
        "jiraIssue": "HUD-2960",
        "problemDescription": "It appears the Navdy is causing issues with my cars computer and being plugged into the obd II port seems to be causing the car to trip codes particularly as it pertains to the cars traction control system. When I first installed the Navdy the car tripped several codes. I had a significant amount of work done on the car, replaced some O2 sensors and had all codes cleared and drove the car for two weeks without the Navdy and then left for this weekend and within and hour of plugging in the Navdy for the first time I have codes being tripped again. - HUD-2960"
    },
    {
        "make": "Nissan",
        "model": "Murano",
        "year": 2011,
        "problemType": "Car won't start",
        "jiraIssue": "HUD-2962",
        "problemDescription": "It is like the battery was drained. Everything went perfect during the installation the dial, my phone, but when I went to start the carr, all the dash lights started flashing and it wouldn't start. I had to pull the battery cable off to stop the lights from flashing.- HUD-2962"
    },
    {
        "make": "Toyota",
        "model": "4Runner",
        "year": 2004,
        "problemType": "All dashboard lights",
        "jiraIssue": "HUD-2984",
        "problemDescription": "2004 4Runner, after using Navdy my VSC lights, ABS lights, Maintanance lights all came on. Toyota service says Navdy caused the VSC computer to need recalibration. $150. Will this happen again? Please advise. - HUD-2984"
    },
    {
        "make": "Jeep",
        "model": "Grand Cherokee",
        "year": 2014,
        "problemType": "Car won't start"
    },
    {
        "make": "Smart",
        "model": "fortwo",
        "year": 2013,
        "problemType": "All dashboard lights",
        "problemDescription": "In a 2013 Smart ForTwo. However, upon installing it, the ABS and Brake icons in the Smart instrument cluster light up occasionally indicating a fault. They only come on for a second, but it’s obvious in the vehicle’s behavior when braking that something is up. It never happened prior to installing Navdy. I then disconnected Navdy and the behavior stopped. Reconnecting Navdy brought the blinking back again."
    },
    {
        "make": "Mazda",
        "model": "3",
        "year": 2013,
        "problemType": "Car won't start",
        "problemDescription": "It seemed to cause some sort of crash in my car's computer system, and now my car won't start. Luckily, I was able to be patient enough to wait until i got home from work to do that or else I would have been stranded at work."
    },
    {
        "make": "Hyundai",
        "model": "Sonata",
        "year": 2007,
        "problemType": "ESC light ",
        "problemDescription": "ESC light turns ON when Navdy is plugged in"
    },
    {
        "make": "Lexus",
        "model": "200",
        "year": 1999,
        "problemType": "All dashboard lights",
        "problemDescription": "About 10-30 seconds after I start the engine with Navdy running, I get both the ABS and 'Traction control off' lights in the dash flashing, a bit faster than once a second. If I start moving forward, they stop flashing, once I stop they come back. \nUnplugging Navdy does not stop the lights, I have to kill the engine and start it again after which it's all fine."
    },
    {
        "make": "Nissan",
        "model": "Altima",
        "year": 2011,
        "problemType": "All dashboard lights",
        "jiraIssue": "HUD-3326",
        "problemDescription": "\"Navdy seems to mess with the anti skid light in my Altima 2011.\" place-holding"
    },
    {
        "make": "BMW",
        "model": "X5",
        "year": 2016,
        "problemType": "All dashboard lights",
        "jiraIssue": "HUD-3565"
    },
    {
        "make": "Hyundai",
        "model": "Elantra",
        "year": 2012,
        "problemType": "All dashboard lights",
        "jiraIssue": "HUD-3612",
        "problemDescription": "\"I tried to drive with the warning lights on and ODB data off. However, car power steering do not work and difficult to shift the gear and the gear change is not smooth. I don't dare to drive further as it may cause damage to the car. Once I disconnect Navdy display everything back to normal.\""
    },
    {
        "make": "Hyundai",
        "model": "Tucson",
        "year": 2007,
        "problemDescription": "\"After installation, I find that it affected my 2007 Hyundai Tuscon ability to switch gears from gear 1. The car would drag the gears on gear 1 and would not switch up when the desired speed for the next gear is reached. The problem went away after the Navdy unit was disconnected from my car. After troubleshooting the issue with AA Singapore, they recommended that I seek the help of my own mechanic.\n\nAfter troubleshooting for 8 days and 3 gear box switches, my mechanic has concluded that it is an incompatible issue between the Navdy unit and my car. Can you help? Is my Navdy unit faulty? Can I get a refund or a different unit?\""
    },
    {
        "make": "BMW",
        "model": "i3",
        "year": 2014,
        "problemType": "Car alarm",
        "jiraIssue": "HUD-3784",
        "problemDescription": "Car alarm goes off after locking car if Navdy on mount"
    },
    {
        "make": "BMW",
        "model": "i3",
        "year": 2015,
        "problemType": "Car alarm",
        "jiraIssue": "HUD-3784",
        "problemDescription": "Car alarm goes off after locking car if Navdy on mount"
    },
    {
        "make": "BMW",
        "model": "i3",
        "year": 2016,
        "problemType": "Car alarm",
        "jiraIssue": "HUD-3784",
        "problemDescription": "Car alarm goes off after locking car if Navdy on mount"
    },
    {
        "make": "BMW",
        "model": "i3",
        "year": 2017,
        "problemType": "Car alarm",
        "jiraIssue": "HUD-3784",
        "problemDescription": "Car alarm goes off after locking car if Navdy on mount"
    }
]